…
food_eiffel_sf <- st_as_sf(
  food_eiffel,
  coords = c("lon", "lat"),
  # The CRS of the resulting coords is here
  crs = eiffel_tower$wkid
)

food_eiffel_sf
#> Simple feature collection with 50 features and 84 fields
#> Geometry type: POINT
#> Dimension:     XY
#> Bounding box:  xmin: 2.2899 ymin: 48.85509 xmax: 2.299974 ymax: 48.8623
#> Geodetic CRS:  WGS 84
#> # A tibble: 50 × 85
#>    q_category   q_x   q_y q_bbox_xmin q_bbox_ymin q_bbox_xmax q_bbox_ymax
#>  * <chr>      <dbl> <dbl> <lgl>       <lgl>       <lgl>       <lgl>      
#>  1 Food        2.29  48.9 NA          NA          NA          NA         
#>  2 Food        2.29  48.9 NA          NA          NA          NA         
#>  3 Food        2.29  48.9 NA          NA          NA          NA         
#>  4 Food        2.29  48.9 NA          NA          NA          NA         
#>  5 Food        2.29  48.9 NA          NA          NA          NA         
#>  6 Food        2.29  48.9 NA          NA          NA          NA         
#>  7 Food        2.29  48.9 NA          NA          NA          NA         
#>  8 Food        2.29  48.9 NA          NA          NA          NA         
#>  9 Food        2.29  48.9 NA          NA          NA          NA         
#> 10 Food        2.29  48.9 NA          NA          NA          NA         
#> # ℹ 40 more rows
#> # ℹ 78 more variables: address <chr>, score <int>, x <dbl>, y <dbl>,
#> #   Loc_name <chr>, Status <chr>, Score <int>, Match_addr <chr>,
#> #   LongLabel <chr>, ShortLabel <chr>, Addr_type <chr>, Type <chr>,
#> #   PlaceName <chr>, Place_addr <chr>, Phone <chr>, URL <chr>, Rank <int>,
#> #   AddBldg <chr>, AddNum <chr>, AddNumFrom <chr>, AddNumTo <chr>,
#> #   AddRange <chr>, Side <chr>, StPreDir <chr>, StPreType <chr>, …
…
