…
[`arc_geo_categories()`](https://dieghernan.github.io/arcgeocoder/reference/arc_geo_categories.md),
[`arc_geo()`](https://dieghernan.github.io/arcgeocoder/reference/arc_geo.md),
[`arc_geo_multi()`](https://dieghernan.github.io/arcgeocoder/reference/arc_geo_multi.md)

Other datasets:
[`arc_spatial_references`](https://dieghernan.github.io/arcgeocoder/reference/arc_spatial_references.md)

## Examples

``` r
# \donttest{
# Get all possible values.
data("arc_categories")
arc_categories
#> # A tibble: 383 × 3
#>    level_1 level_2         level_3
#>    <chr>   <chr>           <chr>  
#>  1 Address Subaddress      NA     
#>  2 Address Point Address   NA     
#>  3 Address Street Address  NA     
#>  4 Address Distance Marker NA     
#>  5 Address Intersection    NA     
#>  6 Address Street Midblock NA     
#>  7 Address Street Between  NA     
#>  8 Address Street Name     NA     
#>  9 Postal  Primary Postal  NA     
#> 10 Postal  Postal Locality NA     
#> # ℹ 373 more rows
…
