ArcGIS REST API category data base — arc_categories • arcgeocoder
…
    Note

    Data extracted on 10 January 2023.

    See also

    arc_geo_categories(), arc_geo(), arc_geo_multi()

    Examples

# \donttest{
# Get all possible values
data("arc_categories")
arc_categories
#> # A tibble: 376 × 3
#>    level_1 level_2          level_3
#>    <chr>   <chr>            <chr>  
#>  1 Address Subaddress       NA     
#>  2 Address Point Address    NA     
#>  3 Address Street Address   NA     
#>  4 Address Distance Marker  NA     
#>  5 Address Intersection     NA     
#>  6 Address Street Midblock  NA     
#>  7 Address Street Name      NA     
#>  8 Postal  Primary Postal   NA     
#>  9 Postal  Postal Locality  NA     
#> 10 Postal  Postal Extension NA     
#> # ℹ 366 more rows
…
