ESRI (ArcGIS) Spatial Reference data base — arc_spatial_references • arcgeocoder
…
    Data extracted on 14 January 2023.

    See also

    sf::st_crs()

Other datasets: 
arc_categories

    Examples

# \donttest{
# Get all possible valuesdata("arc_spatial_references")
arc_spatial_references
#> # A tibble: 9,364 × 8
#>    projtype      wkid latestWkid authority deprecated description areaname wkt  
#>    <chr>        <int>      <int> <chr>     <lgl>      <chr>       <chr>    <chr>
#>  1 ProjectedCo…  2000       2000 EPSG      FALSE      Anguilla 1… Anguill… "PRO…
#>  2 ProjectedCo…  2001       2001 EPSG      FALSE      Antigua 19… Antigua… "PRO…
#>  3 ProjectedCo…  2002       2002 EPSG      FALSE      Dominica 1… Dominic… "PRO…
#>  4 ProjectedCo…  2003       2003 EPSG      FALSE      Grenada 19… Grenada… "PRO…
#>  5 ProjectedCo…  2004       2004 EPSG      FALSE      Montserrat… Montser… "PRO…
#>  6 ProjectedCo…  2005       2005 EPSG      FALSE      St Kitts 1… St Kitt… "PRO…
#>  7 ProjectedCo…  2006       2006 EPSG      FALSE      St Lucia 1… St Luci… "PRO…
#>  8 ProjectedCo…  2007       2007 EPSG      FALSE      St Vincent… St Vinc… "PRO…
#>  9 ProjectedCo…  2008       2008 EPSG      TRUE       NAD 1927 S… Canada … "PRO…
#> 10 ProjectedCo…  2009       2009 EPSG      FALSE      NAD 1927 S… Canada … "PRO…
#> # ℹ 9,354 more rows
…
